{
  "case-001":{
	   "name" : "main-1",
	   "category" : "CAF",
	   "path" : "python %LC_CASE_PATH%\\main-1.py",
	   "parameters" : "",
	   "logpath" : "%LC_RESULT_PATH%\\Log",
	   "pinned" : "0",
	   "critical" : "1",
	   "timeout" : "60"
  },
    "case-002":{
	   "name" : "init-1",
	   "category" : "CAF",
	   "path" : "python %LC_CASE_PATH%\\init-1.py",
	   "parameters" : "",
	   "logpath" : "%LC_RESULT_PATH%\\Log",
	   "critical" : "1",
	   "pinned" : "1",
	   "timeout" : "60",
	   "phase": "init"
  },
  "case-003":{
	   "name" : "init-2",
	   "category" : "CAF",
	   "path" : "python %LC_CASE_PATH%\\init-2.py",
	   "parameters" : "",
	   "logpath" : "%LC_RESULT_PATH%\\Log",
	   "critical" : "1",
	   "pinned" : "1",
	   "timeout" : "60",
	   "phase": "init"
  },
  "case-004":{
	   "name" : "main-2",
	   "category" : "CAF",
	   "path" : "python %LC_CASE_PATH%\\main-2.py",
	   "parameters" : "",
	   "logpath" : "%LC_RESULT_PATH%\\Log",
	   "critical" : "1",
	   "pinned" : "1",
	   "timeout" : "60"
  }
}

